mattdancho
…
hotel_bookings_raw_tbl <- vroom("hotel_bookings_geo_experiment.csv")

Rows: 9225 Columns: 8
── Column specification ────────────────────────────────────────────────────────
Delimiter: ","
chr  (1): assignment
dbl  (6): geo, geo_group, period, treatment, bookings, cost
date (1): date

ℹ Use `spec()` to retrieve the full column specification for this data.
ℹ Specify the column types or set `show_col_types = FALSE` to quiet this message.

hotel_bookings_raw_tbl

# A tibble: 9,225 × 8
   date         geo geo_group period assignment treatment bookings  cost
   <date>     <dbl>     <dbl>  <dbl> <chr>          <dbl>    <dbl> <dbl>
 1 2015-01-05     1         2      0 treatment          0    7327.     0
 2 2015-01-05    10         1      0 control            0    1927.     0
 3 2015-01-05   100         1      0 control            0     124.     0
 4 2015-01-05    11         1      0 control            0    1601.     0
 5 2015-01-05    12         2      0 treatment          0    1472.     0
 6 2015-01-05    13         1      0 control            0    1467.     0
 7 2015-01-05    14         2      0 treatment          0    1596.     0
 8 2015-01-05    15         2      0 treatment          0    1304.     0
 9 2015-01-05    16         1      0 control            0    1117.     0
10 2015-01-05    17         1      0 control            0    1064.     0
# ℹ 9,215 more rows
…
